Throuput: 00:00:00.0729497ms/1.
Throuput: 00:00:00.0211585ms/1.
Throuput: 00:00:00.0209100ms/1.
Throuput: 00:00:00.0209195ms/1.
Throuput: 00:00:00.0209289ms/1.
Throuput: 00:00:00.0490218ms/2.
Throuput: 00:00:00.0435735ms/2.
Throuput: 00:00:00.0436107ms/2.
Throuput: 00:00:00.0440506ms/2.
Throuput: 00:00:00.0437158ms/2.
Throuput: 00:00:00.0670533ms/3.
Throuput: 00:00:00.0652235ms/3.
Throuput: 00:00:00.0645531ms/3.
Throuput: 00:00:00.0646849ms/3.
Throuput: 00:00:00.0642421ms/3.
Throuput: 00:00:00.0853283ms/4.
Throuput: 00:00:00.0844008ms/4.
Throuput: 00:00:00.0857072ms/4.
Throuput: 00:00:00.0851725ms/4.
Throuput: 00:00:00.0843023ms/4.
Throuput: 00:00:00.1057163ms/5.
Throuput: 00:00:00.1060870ms/5.
Throuput: 00:00:00.1064161ms/5.
Throuput: 00:00:00.1055870ms/5.
Throuput: 00:00:00.1058112ms/5.
Throuput: 00:00:00.1266383ms/6.
Throuput: 00:00:00.1258640ms/6.
Throuput: 00:00:00.1268036ms/6.
Throuput: 00:00:00.1267605ms/6.
Throuput: 00:00:00.1267105ms/6.
Throuput: 00:00:00.1478475ms/7.
Throuput: 00:00:00.1477496ms/7.
Throuput: 00:00:00.1477205ms/7.
Throuput: 00:00:00.1468160ms/7.
Throuput: 00:00:00.1466360ms/7.
Throuput: 00:00:00.1687580ms/8.
Throuput: 00:00:00.1687770ms/8.
Throuput: 00:00:00.1686813ms/8.
Throuput: 00:00:00.1677889ms/8.
Throuput: 00:00:00.1687638ms/8.
Throuput: 00:00:00.1896715ms/9.
Throuput: 00:00:00.1889143ms/9.
Throuput: 00:00:00.1897194ms/9.
Throuput: 00:00:00.1886507ms/9.
Throuput: 00:00:00.1896309ms/9.
Throuput: 00:00:00.2098570ms/10.
Throuput: 00:00:00.2093888ms/10.
Throuput: 00:00:00.2099138ms/10.
Throuput: 00:00:00.2098510ms/10.
Throuput: 00:00:00.2099727ms/10.
Throuput: 00:00:00.2308776ms/11.
Throuput: 00:00:00.2308614ms/11.
Throuput: 00:00:00.2309331ms/11.
Throuput: 00:00:00.2306986ms/11.
Throuput: 00:00:00.2310060ms/11.
Throuput: 00:00:00.2514527ms/12.
Throuput: 00:00:00.2518910ms/12.
Throuput: 00:00:00.2518929ms/12.
Throuput: 00:00:00.2518763ms/12.
Throuput: 00:00:00.2518160ms/12.
Throuput: 00:00:00.2728872ms/13.
Throuput: 00:00:00.2729391ms/13.
Throuput: 00:00:00.2728555ms/13.
Throuput: 00:00:00.2728774ms/13.
Throuput: 00:00:00.2728568ms/13.
Throuput: 00:00:00.2949281ms/14.
Throuput: 00:00:00.3014531ms/14.
Throuput: 00:00:00.2939577ms/14.
Throuput: 00:00:00.2944133ms/14.
Throuput: 00:00:00.2938378ms/14.
Throuput: 00:00:00.3148559ms/15.
Throuput: 00:00:00.3148202ms/15.
Throuput: 00:00:00.3148190ms/15.
Throuput: 00:00:00.3148722ms/15.
Throuput: 00:00:00.3155440ms/15.
Throuput: 00:00:00.3358942ms/16.
Throuput: 00:00:00.3358762ms/16.
Throuput: 00:00:00.3358068ms/16.
Throuput: 00:00:00.3358649ms/16.
Throuput: 00:00:00.3358245ms/16.
Throuput: 00:00:00.3558543ms/17.
Throuput: 00:00:00.3568756ms/17.
Throuput: 00:00:00.3569508ms/17.
Throuput: 00:00:00.3568639ms/17.
Throuput: 00:00:00.3567728ms/17.
Throuput: 00:00:00.4193501ms/20.
Throuput: 00:00:00.4198697ms/20.
Throuput: 00:00:00.4198159ms/20.
Throuput: 00:00:00.4198132ms/20.
Throuput: 00:00:00.4194195ms/20.
Throuput: 00:00:00.5249079ms/25.
Throuput: 00:00:00.5248056ms/25.
Throuput: 00:00:00.5256519ms/25.
Throuput: 00:00:00.5248603ms/25.
Throuput: 00:00:00.5248298ms/25.
Throuput: 00:00:01.2596052ms/60.
Throuput: 00:00:01.2589496ms/60.
Throuput: 00:00:01.2582405ms/60.
Throuput: 00:00:01.2605468ms/60.
Throuput: 00:00:01.2592489ms/60.
Throuput: 00:00:02.0985867ms/100.
Throuput: 00:00:02.0988252ms/100.
Throuput: 00:00:02.0989764ms/100.
Throuput: 00:00:02.0991151ms/100.
Throuput: 00:00:02.0992358ms/100.
Throuput: 00:00:00.0238402ms/1.
Throuput: 00:00:00.0239214ms/1.
Throuput: 00:00:00.0219916ms/1.
Throuput: 00:00:00.0219342ms/1.
Throuput: 00:00:00.0219126ms/1.
Throuput: 00:00:00.0323504ms/2.
Throuput: 00:00:00.0218862ms/2.
Throuput: 00:00:00.0215473ms/2.
Throuput: 00:00:00.0208688ms/2.
Throuput: 00:00:00.0209609ms/2.
Throuput: 00:00:00.0219388ms/3.
Throuput: 00:00:00.0219069ms/3.
Throuput: 00:00:00.0218830ms/3.
Throuput: 00:00:00.0218555ms/3.
Throuput: 00:00:00.0211248ms/3.
Throuput: 00:00:00.0218181ms/4.
Throuput: 00:00:00.0210847ms/4.
Throuput: 00:00:00.0219756ms/4.
Throuput: 00:00:00.0217379ms/4.
Throuput: 00:00:00.0239242ms/4.
Throuput: 00:00:00.0284604ms/5.
Throuput: 00:00:00.0244106ms/5.
Throuput: 00:00:00.0230050ms/5.
Throuput: 00:00:00.0229389ms/5.
Throuput: 00:00:00.0227992ms/5.
Throuput: 00:00:00.0209736ms/6.
Throuput: 00:00:00.0210003ms/6.
Throuput: 00:00:00.0218497ms/6.
Throuput: 00:00:00.0209465ms/6.
Throuput: 00:00:00.0209619ms/6.
Throuput: 00:00:00.0210371ms/7.
Throuput: 00:00:00.0217584ms/7.
Throuput: 00:00:00.0211753ms/7.
Throuput: 00:00:00.0221062ms/7.
Throuput: 00:00:00.0217075ms/7.
Throuput: 00:00:00.0219625ms/8.
Throuput: 00:00:00.0217447ms/8.
Throuput: 00:00:00.0218198ms/8.
Throuput: 00:00:00.0209812ms/8.
Throuput: 00:00:00.0219467ms/8.
Throuput: 00:00:00.0219116ms/9.
Throuput: 00:00:00.0220847ms/9.
Throuput: 00:00:00.0218731ms/9.
Throuput: 00:00:00.0218020ms/9.
Throuput: 00:00:00.0219048ms/9.
Throuput: 00:00:00.0219914ms/10.
Throuput: 00:00:00.0218931ms/10.
Throuput: 00:00:00.0220897ms/10.
Throuput: 00:00:00.0218006ms/10.
Throuput: 00:00:00.0216143ms/10.
Throuput: 00:00:00.0219312ms/11.
Throuput: 00:00:00.0219748ms/11.
Throuput: 00:00:00.0219081ms/11.
Throuput: 00:00:00.0218381ms/11.
Throuput: 00:00:00.0219996ms/11.
Throuput: 00:00:00.0217244ms/12.
Throuput: 00:00:00.0220648ms/12.
Throuput: 00:00:00.0218175ms/12.
Throuput: 00:00:00.0257293ms/12.
Throuput: 00:00:00.0219003ms/12.
Throuput: 00:00:00.0427252ms/13.
Throuput: 00:00:00.0419289ms/13.
Throuput: 00:00:00.0418557ms/13.
Throuput: 00:00:00.0419190ms/13.
Throuput: 00:00:00.0430185ms/13.
Throuput: 00:00:00.0428427ms/14.
Throuput: 00:00:00.0428064ms/14.
Throuput: 00:00:00.0428616ms/14.
Throuput: 00:00:00.0429107ms/14.
Throuput: 00:00:00.0419220ms/14.
Throuput: 00:00:00.0429932ms/15.
Throuput: 00:00:00.0428031ms/15.
Throuput: 00:00:00.0429539ms/15.
Throuput: 00:00:00.0427310ms/15.
Throuput: 00:00:00.0428844ms/15.
Throuput: 00:00:00.0418382ms/16.
Throuput: 00:00:00.0429018ms/16.
Throuput: 00:00:00.0420699ms/16.
Throuput: 00:00:00.0428734ms/16.
Throuput: 00:00:00.0429689ms/16.
Throuput: 00:00:00.0427756ms/17.
Throuput: 00:00:00.0429542ms/17.
Throuput: 00:00:00.0428303ms/17.
Throuput: 00:00:00.0477453ms/17.
Throuput: 00:00:00.0429879ms/17.
Throuput: 00:00:00.0425792ms/20.
Throuput: 00:00:00.0428607ms/20.
Throuput: 00:00:00.0429660ms/20.
Throuput: 00:00:00.0576633ms/20.
Throuput: 00:00:00.0431104ms/20.
Throuput: 00:00:00.0637096ms/25.
Throuput: 00:00:00.0638391ms/25.
Throuput: 00:00:00.0638467ms/25.
Throuput: 00:00:00.0638158ms/25.
Throuput: 00:00:00.0629315ms/25.
Throuput: 00:00:00.1064626ms/60.
Throuput: 00:00:00.1061486ms/60.
Throuput: 00:00:00.1060471ms/60.
Throuput: 00:00:00.1063008ms/60.
Throuput: 00:00:00.1057950ms/60.
Throuput: 00:00:00.1893749ms/100.
Throuput: 00:00:00.1896526ms/100.
Throuput: 00:00:00.1970791ms/100.
Throuput: 00:00:00.1917406ms/100.
Throuput: 00:00:00.1904050ms/100.
multipleSameUserLatency
hide latency: 00:00:00.0219054ms/1.
hide latency: 00:00:00.0216302ms/1.
hide latency: 00:00:00.0208593ms/1.
hide latency: 00:00:00.0209104ms/1.
hide latency: 00:00:00.0209347ms/1.
hide latency: 00:00:00.0209469ms/2.
hide latency: 00:00:00.0210138ms/2.
hide latency: 00:00:00.0209282ms/2.
hide latency: 00:00:00.0209205ms/2.
hide latency: 00:00:00.0208940ms/2.
hide latency: 00:00:00.0208037ms/3.
hide latency: 00:00:00.0209099ms/3.
hide latency: 00:00:00.0208424ms/3.
hide latency: 00:00:00.0208436ms/3.
hide latency: 00:00:00.0208527ms/3.
hide latency: 00:00:00.0208667ms/4.
hide latency: 00:00:00.0207805ms/4.
hide latency: 00:00:00.0209291ms/4.
hide latency: 00:00:00.0209081ms/4.
hide latency: 00:00:00.0208511ms/4.
hide latency: 00:00:00.0208649ms/5.
hide latency: 00:00:00.0210060ms/5.
hide latency: 00:00:00.0207933ms/5.
hide latency: 00:00:00.0208451ms/5.
hide latency: 00:00:00.0209055ms/5.
hide latency: 00:00:00.0208529ms/6.
hide latency: 00:00:00.0208949ms/6.
hide latency: 00:00:00.0207519ms/6.
hide latency: 00:00:00.0208622ms/6.
hide latency: 00:00:00.0210040ms/6.
hide latency: 00:00:00.0207789ms/7.
hide latency: 00:00:00.0208423ms/7.
hide latency: 00:00:00.0208034ms/7.
hide latency: 00:00:00.0208898ms/7.
hide latency: 00:00:00.0209295ms/7.
hide latency: 00:00:00.0206566ms/8.
hide latency: 00:00:00.0206597ms/8.
hide latency: 00:00:00.0209272ms/8.
hide latency: 00:00:00.0208507ms/8.
hide latency: 00:00:00.0208131ms/8.
hide latency: 00:00:00.0210839ms/9.
hide latency: 00:00:00.0209953ms/9.
hide latency: 00:00:00.0208279ms/9.
hide latency: 00:00:00.0208371ms/9.
hide latency: 00:00:00.0208256ms/9.
hide latency: 00:00:00.0209045ms/10.
hide latency: 00:00:00.0209834ms/10.
hide latency: 00:00:00.0208820ms/10.
hide latency: 00:00:00.0207822ms/10.
hide latency: 00:00:00.0207127ms/10.
hide latency: 00:00:00.0209623ms/11.
hide latency: 00:00:00.0213492ms/11.
hide latency: 00:00:00.0209892ms/11.
hide latency: 00:00:00.0208619ms/11.
hide latency: 00:00:00.0208893ms/11.
hide latency: 00:00:00.0208890ms/12.
hide latency: 00:00:00.0209112ms/12.
hide latency: 00:00:00.0209898ms/12.
hide latency: 00:00:00.0207881ms/12.
hide latency: 00:00:00.0208999ms/12.
hide latency: 00:00:00.0209078ms/13.
hide latency: 00:00:00.0207890ms/13.
hide latency: 00:00:00.0208177ms/13.
hide latency: 00:00:00.0208214ms/13.
hide latency: 00:00:00.0207992ms/13.
hide latency: 00:00:00.0206803ms/14.
hide latency: 00:00:00.0208198ms/14.
hide latency: 00:00:00.0209392ms/14.
hide latency: 00:00:00.0209828ms/14.
hide latency: 00:00:00.0209249ms/14.
hide latency: 00:00:00.0209069ms/15.
hide latency: 00:00:00.0208766ms/15.
hide latency: 00:00:00.0207709ms/15.
hide latency: 00:00:00.0207865ms/15.
hide latency: 00:00:00.0208947ms/15.
hide latency: 00:00:00.0209087ms/16.
hide latency: 00:00:00.0209197ms/16.
hide latency: 00:00:00.0207999ms/16.
hide latency: 00:00:00.0209517ms/16.
hide latency: 00:00:00.0208479ms/16.
hide latency: 00:00:00.0208720ms/17.
hide latency: 00:00:00.0208614ms/17.
hide latency: 00:00:00.0208403ms/17.
hide latency: 00:00:00.0217140ms/17.
hide latency: 00:00:00.0208227ms/17.
hide latency: 00:00:00.0208648ms/20.
hide latency: 00:00:00.0210032ms/20.
hide latency: 00:00:00.0209082ms/20.
hide latency: 00:00:00.0208947ms/20.
hide latency: 00:00:00.0208054ms/20.
hide latency: 00:00:00.0208852ms/25.
hide latency: 00:00:00.0257626ms/25.
hide latency: 00:00:00.0208415ms/25.
hide latency: 00:00:00.0208426ms/25.
hide latency: 00:00:00.0208339ms/25.
hide latency: 00:00:00.0204971ms/60.
hide latency: 00:00:00.0207459ms/60.
hide latency: 00:00:00.0207813ms/60.
hide latency: 00:00:00.0206672ms/60.
hide latency: 00:00:00.0208091ms/60.
hide latency: 00:00:00.0206523ms/100.
hide latency: 00:00:00.0203104ms/100.
hide latency: 00:00:00.0206283ms/100.
hide latency: 00:00:00.0205520ms/100.
hide latency: 00:00:00.0205777ms/100.
hide latency: 00:00:00.0210951ms/1.
hide latency: 00:00:00.0205928ms/1.
hide latency: 00:00:00.0209102ms/1.
hide latency: 00:00:00.0210073ms/1.
hide latency: 00:00:00.0209261ms/1.
hide latency: 00:00:00.0209488ms/2.
hide latency: 00:00:00.0207810ms/2.
hide latency: 00:00:00.0208736ms/2.
hide latency: 00:00:00.0209081ms/2.
hide latency: 00:00:00.0215424ms/2.
hide latency: 00:00:00.0207370ms/3.
hide latency: 00:00:00.0209061ms/3.
hide latency: 00:00:00.0209374ms/3.
hide latency: 00:00:00.0209093ms/3.
hide latency: 00:00:00.0207133ms/3.
hide latency: 00:00:00.0208848ms/4.
hide latency: 00:00:00.0207570ms/4.
hide latency: 00:00:00.0209414ms/4.
hide latency: 00:00:00.0209261ms/4.
hide latency: 00:00:00.0209478ms/4.
hide latency: 00:00:00.0207449ms/5.
hide latency: 00:00:00.0209468ms/5.
hide latency: 00:00:00.0209328ms/5.
hide latency: 00:00:00.0208950ms/5.
hide latency: 00:00:00.0208660ms/5.
hide latency: 00:00:00.0209490ms/6.
hide latency: 00:00:00.0214117ms/6.
hide latency: 00:00:00.0207287ms/6.
hide latency: 00:00:00.0209283ms/6.
hide latency: 00:00:00.0207738ms/6.
hide latency: 00:00:00.0208836ms/7.
hide latency: 00:00:00.0208415ms/7.
hide latency: 00:00:00.0209646ms/7.
hide latency: 00:00:00.0208759ms/7.
hide latency: 00:00:00.0206749ms/7.
hide latency: 00:00:00.0208943ms/8.
hide latency: 00:00:00.0209193ms/8.
hide latency: 00:00:00.0209841ms/8.
hide latency: 00:00:00.0207270ms/8.
hide latency: 00:00:00.0209870ms/8.
hide latency: 00:00:00.0209610ms/9.
hide latency: 00:00:00.0207182ms/9.
hide latency: 00:00:00.0209383ms/9.
hide latency: 00:00:00.0207846ms/9.
hide latency: 00:00:00.0208453ms/9.
hide latency: 00:00:00.0208366ms/10.
hide latency: 00:00:00.0210146ms/10.
hide latency: 00:00:00.0207041ms/10.
hide latency: 00:00:00.0208333ms/10.
hide latency: 00:00:00.0207921ms/10.
hide latency: 00:00:00.0211449ms/11.
hide latency: 00:00:00.0206394ms/11.
hide latency: 00:00:00.0207578ms/11.
hide latency: 00:00:00.0207770ms/11.
hide latency: 00:00:00.0209360ms/11.
hide latency: 00:00:00.0210151ms/12.
hide latency: 00:00:00.0205830ms/12.
hide latency: 00:00:00.0206539ms/12.
hide latency: 00:00:00.0208710ms/12.
hide latency: 00:00:00.0210470ms/12.
hide latency: 00:00:00.0209267ms/13.
hide latency: 00:00:00.0208258ms/13.
hide latency: 00:00:00.0208643ms/13.
hide latency: 00:00:00.0208439ms/13.
hide latency: 00:00:00.0209905ms/13.
hide latency: 00:00:00.0206774ms/14.
hide latency: 00:00:00.0207211ms/14.
hide latency: 00:00:00.0209255ms/14.
hide latency: 00:00:00.0208071ms/14.
hide latency: 00:00:00.0207683ms/14.
hide latency: 00:00:00.0208179ms/15.
hide latency: 00:00:00.0205726ms/15.
hide latency: 00:00:00.0209963ms/15.
hide latency: 00:00:00.0207349ms/15.
hide latency: 00:00:00.0209459ms/15.
hide latency: 00:00:00.0208027ms/16.
hide latency: 00:00:00.0207380ms/16.
hide latency: 00:00:00.0208291ms/16.
hide latency: 00:00:00.0209290ms/16.
hide latency: 00:00:00.0208557ms/16.
hide latency: 00:00:00.0208198ms/17.
hide latency: 00:00:00.0205333ms/17.
hide latency: 00:00:00.0210477ms/17.
hide latency: 00:00:00.0206701ms/17.
hide latency: 00:00:00.0207160ms/17.
hide latency: 00:00:00.0205493ms/20.
hide latency: 00:00:00.0209083ms/20.
hide latency: 00:00:00.0215496ms/20.
hide latency: 00:00:00.0205973ms/20.
hide latency: 00:00:00.0217552ms/20.
hide latency: 00:00:00.0204388ms/25.
hide latency: 00:00:00.0208060ms/25.
hide latency: 00:00:00.0209822ms/25.
hide latency: 00:00:00.0208884ms/25.
hide latency: 00:00:00.0208590ms/25.
hide latency: 00:00:00.0207952ms/60.
hide latency: 00:00:00.0210715ms/60.
hide latency: 00:00:00.0202025ms/60.
hide latency: 00:00:00.0206325ms/60.
hide latency: 00:00:00.0203187ms/60.
hide latency: 00:00:00.0203700ms/100.
hide latency: 00:00:00.0205597ms/100.
hide latency: 00:00:00.0199191ms/100.
hide latency: 00:00:00.0205409ms/100.
hide latency: 00:00:00.0197098ms/100.
singleSameUserLatency average timespan 00:00:00.0209898
iteration 100 times
100
the number of events : 1
1
singleDiffUserLatency average timespan 00:00:00.0209916
